<?xml version="1.0" encoding="utf-8"?>
<!DOCTYPE eagle SYSTEM "eagle.dtd">
<eagle version="9.6.2">
<drawing>
<settings>
<setting alwaysvectorfont="no"/>
<setting verticaltext="up"/>
</settings>
<grid distance="0.1" unitdist="inch" unit="inch" style="lines" multiple="1" display="no" altdistance="0.01" altunitdist="inch" altunit="inch"/>
<layers>
<layer number="1" name="Top" color="4" fill="1" visible="no" active="no"/>
<layer number="2" name="Route2" color="1" fill="3" visible="no" active="no"/>
<layer number="3" name="Route3" color="4" fill="3" visible="no" active="no"/>
<layer number="4" name="Route4" color="1" fill="4" visible="no" active="no"/>
<layer number="5" name="Route5" color="4" fill="4" visible="no" active="no"/>
<layer number="6" name="Route6" color="1" fill="8" visible="no" active="no"/>
<layer number="7" name="Route7" color="4" fill="8" visible="no" active="no"/>
<layer number="8" name="Route8" color="1" fill="2" visible="no" active="no"/>
<layer number="9" name="Route9" color="4" fill="2" visible="no" active="no"/>
<layer number="10" name="Route10" color="1" fill="7" visible="no" active="no"/>
<layer number="11" name="Route11" color="4" fill="7" visible="no" active="no"/>
<layer number="12" name="Route12" color="1" fill="5" visible="no" active="no"/>
<layer number="13" name="Route13" color="4" fill="5" visible="no" active="no"/>
<layer number="14" name="Route14" color="1" fill="6" visible="no" active="no"/>
<layer number="15" name="Route15" color="4" fill="6" visible="no" active="no"/>
<layer number="16" name="Bottom" color="1" fill="1" visible="no" active="no"/>
<layer number="17" name="Pads" color="2" fill="1" visible="no" active="no"/>
<layer number="18" name="Vias" color="2" fill="1" visible="no" active="no"/>
<layer number="19" name="Unrouted" color="6" fill="1" visible="no" active="no"/>
<layer number="20" name="Dimension" color="15" fill="1" visible="no" active="no"/>
<layer number="21" name="tPlace" color="7" fill="1" visible="no" active="no"/>
<layer number="22" name="bPlace" color="7" fill="1" visible="no" active="no"/>
<layer number="23" name="tOrigins" color="15" fill="1" visible="no" active="no"/>
<layer number="24" name="bOrigins" color="15" fill="1" visible="no" active="no"/>
<layer number="25" name="tNames" color="7" fill="1" visible="no" active="no"/>
<layer number="26" name="bNames" color="7" fill="1" visible="no" active="no"/>
<layer number="27" name="tValues" color="7" fill="1" visible="no" active="no"/>
<layer number="28" name="bValues" color="7" fill="1" visible="no" active="no"/>
<layer number="29" name="tStop" color="7" fill="3" visible="no" active="no"/>
<layer number="30" name="bStop" color="7" fill="6" visible="no" active="no"/>
<layer number="31" name="tCream" color="7" fill="4" visible="no" active="no"/>
<layer number="32" name="bCream" color="7" fill="5" visible="no" active="no"/>
<layer number="33" name="tFinish" color="6" fill="3" visible="no" active="no"/>
<layer number="34" name="bFinish" color="6" fill="6" visible="no" active="no"/>
<layer number="35" name="tGlue" color="7" fill="4" visible="no" active="no"/>
<layer number="36" name="bGlue" color="7" fill="5" visible="no" active="no"/>
<layer number="37" name="tTest" color="7" fill="1" visible="no" active="no"/>
<layer number="38" name="bTest" color="7" fill="1" visible="no" active="no"/>
<layer number="39" name="tKeepout" color="4" fill="11" visible="no" active="no"/>
<layer number="40" name="bKeepout" color="1" fill="11" visible="no" active="no"/>
<layer number="41" name="tRestrict" color="4" fill="10" visible="no" active="no"/>
<layer number="42" name="bRestrict" color="1" fill="10" visible="no" active="no"/>
<layer number="43" name="vRestrict" color="2" fill="10" visible="no" active="no"/>
<layer number="44" name="Drills" color="7" fill="1" visible="no" active="no"/>
<layer number="45" name="Holes" color="7" fill="1" visible="no" active="no"/>
<layer number="46" name="Milling" color="3" fill="1" visible="no" active="no"/>
<layer number="47" name="Measures" color="7" fill="1" visible="no" active="no"/>
<layer number="48" name="Document" color="7" fill="1" visible="no" active="no"/>
<layer number="49" name="Reference" color="7" fill="1" visible="no" active="no"/>
<layer number="51" name="tDocu" color="6" fill="11" visible="no" active="no"/>
<layer number="52" name="bDocu" color="7" fill="1" visible="no" active="no"/>
<layer number="88" name="SimResults" color="9" fill="1" visible="yes" active="yes"/>
<layer number="89" name="SimProbes" color="9" fill="1" visible="yes" active="yes"/>
<layer number="90" name="Modules" color="5" fill="1" visible="yes" active="yes"/>
<layer number="91" name="Nets" color="2" fill="1" visible="yes" active="yes"/>
<layer number="92" name="Busses" color="1" fill="1" visible="yes" active="yes"/>
<layer number="93" name="Pins" color="2" fill="1" visible="no" active="yes"/>
<layer number="94" name="Symbols" color="4" fill="1" visible="yes" active="yes"/>
<layer number="95" name="Names" color="7" fill="1" visible="yes" active="yes"/>
<layer number="96" name="Values" color="7" fill="1" visible="yes" active="yes"/>
<layer number="97" name="Info" color="7" fill="1" visible="yes" active="yes"/>
<layer number="98" name="Guide" color="6" fill="1" visible="yes" active="yes"/>
<layer number="99" name="SpiceOrder" color="7" fill="1" visible="yes" active="yes"/>
</layers>
<schematic xreflabel="%F%N/%S.%C%R" xrefpart="/%S.%C%R">
<libraries>
<library name="battery" urn="urn:adsk.eagle:library:109">
<description>&lt;b&gt;Lithium Batteries and NC Accus&lt;/b&gt;&lt;p&gt;
&lt;author&gt;Created by librarian@cadsoft.de&lt;/author&gt;</description>
<packages>
<package name="AB9V" urn="urn:adsk.eagle:footprint:4514/1" library_version="3">
<description>&lt;B&gt;9-V BATTERY CLIP&lt;/B&gt;</description>
<wire x1="-2.54" y1="-3.175" x2="-2.54" y2="-1.905" width="0.254" layer="21"/>
<wire x1="-2.54" y1="1.905" x2="-2.54" y2="3.175" width="0.254" layer="21"/>
<wire x1="-1.905" y1="2.54" x2="-3.175" y2="2.54" width="0.254" layer="21"/>
<wire x1="-2.54" y1="4.318" x2="-1.778" y2="5.08" width="0.1524" layer="21"/>
<wire x1="-1.778" y1="5.08" x2="1.778" y2="5.08" width="0.1524" layer="21"/>
<wire x1="2.54" y1="4.318" x2="1.778" y2="5.08" width="0.1524" layer="21"/>
<wire x1="2.54" y1="4.318" x2="2.54" y2="-4.318" width="0.1524" layer="21"/>
<wire x1="1.778" y1="-5.08" x2="2.54" y2="-4.318" width="0.1524" layer="21"/>
<wire x1="1.778" y1="-5.08" x2="-1.778" y2="-5.08" width="0.1524" layer="21"/>
<wire x1="-2.54" y1="-4.318" x2="-1.778" y2="-5.08" width="0.1524" layer="21"/>
<circle x="0" y="2.54" radius="1.27" width="0.1524" layer="51"/>
<circle x="0" y="-2.54" radius="1.27" width="0.1524" layer="51"/>
<pad name="-" x="0" y="-2.54" drill="1.1176" diameter="3.1496" shape="octagon"/>
<pad name="+" x="0" y="2.54" drill="1.1176" diameter="3.1496" shape="octagon"/>
<text x="-1.905" y="-1.143" size="1.27" layer="21" ratio="16" rot="R90">9V</text>
<text x="-3.81" y="-2.54" size="1.27" layer="25" ratio="10" rot="R90">&gt;NAME</text>
<text x="4.445" y="-2.54" size="1.27" layer="27" ratio="10" rot="R90">&gt;VALUE</text>
</package>
</packages>
<packages3d>
<package3d name="AB9V" urn="urn:adsk.eagle:package:4600/1" type="box" library_version="3">
<description>9-V BATTERY CLIP</description>
<packageinstances>
<packageinstance name="AB9V"/>
</packageinstances>
</package3d>
</packages3d>
<symbols>
<symbol name="9V0-BL" urn="urn:adsk.eagle:symbol:4513/1" library_version="3">
<wire x1="-6.985" y1="0.635" x2="-6.985" y2="0" width="0.4064" layer="94"/>
<wire x1="-8.89" y1="0" x2="-6.985" y2="0" width="0.1524" layer="94"/>
<wire x1="-6.985" y1="0" x2="-6.985" y2="-0.635" width="0.4064" layer="94"/>
<wire x1="-5.715" y1="2.54" x2="-5.715" y2="-2.54" width="0.4064" layer="94"/>
<wire x1="-4.445" y1="0.635" x2="-4.445" y2="-0.635" width="0.4064" layer="94"/>
<wire x1="6.985" y1="2.54" x2="6.985" y2="0" width="0.4064" layer="94"/>
<wire x1="6.985" y1="0" x2="8.255" y2="0" width="0.1524" layer="94"/>
<wire x1="6.985" y1="0" x2="6.985" y2="-2.54" width="0.4064" layer="94"/>
<wire x1="-3.175" y1="2.54" x2="-3.175" y2="-2.54" width="0.4064" layer="94"/>
<wire x1="-1.905" y1="0.635" x2="-1.905" y2="-0.635" width="0.4064" layer="94"/>
<wire x1="-0.635" y1="2.54" x2="-0.635" y2="-2.54" width="0.4064" layer="94"/>
<wire x1="0.635" y1="0.635" x2="0.635" y2="-0.635" width="0.4064" layer="94"/>
<wire x1="1.905" y1="2.54" x2="1.905" y2="-2.54" width="0.4064" layer="94"/>
<wire x1="3.175" y1="0.635" x2="3.175" y2="-0.635" width="0.4064" layer="94"/>
<wire x1="4.445" y1="2.54" x2="4.445" y2="-2.54" width="0.4064" layer="94"/>
<wire x1="5.715" y1="0.635" x2="5.715" y2="-0.635" width="0.4064" layer="94"/>
<wire x1="9.525" y1="0.635" x2="9.525" y2="-0.635" width="0.254" layer="94" curve="-180" cap="flat"/>
<wire x1="-9.525" y1="0.635" x2="-9.525" y2="-0.635" width="0.254" layer="94" curve="-180" cap="flat"/>
<wire x1="8.255" y1="0" x2="8.89" y2="0" width="0.6096" layer="94"/>
<wire x1="-10.16" y1="0" x2="-10.795" y2="0" width="0.6096" layer="94"/>
<text x="-5.715" y="3.175" size="1.778" layer="95">&gt;NAME</text>
<text x="-5.715" y="-5.08" size="1.778" layer="96">&gt;VALUE</text>
<text x="7.62" y="0.635" size="1.524" layer="94">+</text>
<text x="-8.255" y="0.635" size="1.524" layer="94">-</text>
<pin name="+" x="12.7" y="0" visible="pad" length="short" direction="pas" rot="R180"/>
<pin name="-" x="-12.7" y="0" visible="pad" length="short" direction="pas"/>
</symbol>
</symbols>
<devicesets>
<deviceset name="AB9V" urn="urn:adsk.eagle:component:4654/2" prefix="G" library_version="3">
<description>&lt;B&gt;9-V BATTERY CLIP&lt;/B&gt;</description>
<gates>
<gate name="G$1" symbol="9V0-BL" x="0" y="0"/>
</gates>
<devices>
<device name="" package="AB9V">
<connects>
<connect gate="G$1" pin="+" pad="+"/>
<connect gate="G$1" pin="-" pad="-"/>
</connects>
<package3dinstances>
<package3dinstance package3d_urn="urn:adsk.eagle:package:4600/1"/>
</package3dinstances>
<technologies>
<technology name="">
<attribute name="POPULARITY" value="32" constant="no"/>
</technology>
</technologies>
</device>
</devices>
</deviceset>
</devicesets>
</library>
<library name="docu-dummy" urn="urn:adsk.eagle:library:215">
<description>Dummy symbols</description>
<packages>
</packages>
<symbols>
<symbol name="RESISTOR" urn="urn:adsk.eagle:symbol:13162/1" library_version="3">
<wire x1="-2.54" y1="-0.889" x2="2.54" y2="-0.889" width="0.254" layer="94"/>
<wire x1="2.54" y1="0.889" x2="-2.54" y2="0.889" width="0.254" layer="94"/>
<wire x1="2.54" y1="-0.889" x2="2.54" y2="0" width="0.254" layer="94"/>
<wire x1="2.54" y1="0" x2="2.54" y2="0.889" width="0.254" layer="94"/>
<wire x1="-2.54" y1="-0.889" x2="-2.54" y2="0" width="0.254" layer="94"/>
<wire x1="-2.54" y1="0" x2="-2.54" y2="0.889" width="0.254" layer="94"/>
<wire x1="-5.08" y1="0" x2="-2.54" y2="0" width="0.1524" layer="94"/>
<wire x1="2.54" y1="0" x2="5.08" y2="0" width="0.1524" layer="94"/>
</symbol>
</symbols>
<devicesets>
<deviceset name="R" urn="urn:adsk.eagle:component:13171/1" prefix="R" library_version="3">
<description>&lt;b&gt;RESISTOR&lt;/b&gt;</description>
<gates>
<gate name="G$1" symbol="RESISTOR" x="0" y="0"/>
</gates>
<devices>
<device name="">
<technologies>
<technology name=""/>
</technologies>
</device>
</devices>
</deviceset>
</devicesets>
</library>
<library name="ngspice-simulation" urn="urn:adsk.eagle:library:527439">
<description>SPICE compatible library parts</description>
<packages>
</packages>
<symbols>
<symbol name="0" urn="urn:adsk.eagle:symbol:527455/1" library_version="18">
<description>Simulation ground symbol (spice node 0)</description>
<wire x1="-2.54" y1="0" x2="2.54" y2="0" width="0.1524" layer="94"/>
<wire x1="2.54" y1="0" x2="0" y2="-2.54" width="0.1524" layer="94"/>
<wire x1="0" y1="-2.54" x2="-2.54" y2="0" width="0.1524" layer="94"/>
<pin name="0" x="0" y="0" visible="off" length="point" direction="sup"/>
</symbol>
</symbols>
<devicesets>
<deviceset name="GND" urn="urn:adsk.eagle:component:527478/1" prefix="X_" library_version="18">
<description>Simulation ground symbol (spice node 0)</description>
<gates>
<gate name="G$1" symbol="0" x="0" y="0"/>
</gates>
<devices>
<device name="">
<technologies>
<technology name="">
<attribute name="SPICEGROUND" value=""/>
<attribute name="_EXTERNAL_" value=""/>
</technology>
</technologies>
</device>
</devices>
</deviceset>
</devicesets>
</library>
</libraries>
<attributes>
</attributes>
<variantdefs>
</variantdefs>
<classes>
<class number="0" name="default" width="0" drill="0">
</class>
</classes>
<parts>
<part name="12VBATTERY" library="battery" library_urn="urn:adsk.eagle:library:109" deviceset="AB9V" device="" package3d_urn="urn:adsk.eagle:package:4600/1" value="12V"/>
<part name="R1" library="docu-dummy" library_urn="urn:adsk.eagle:library:215" deviceset="R" device="" value="3000 ohms"/>
<part name="R2" library="docu-dummy" library_urn="urn:adsk.eagle:library:215" deviceset="R" device="" value="9000 ohms"/>
<part name="X_1" library="ngspice-simulation" library_urn="urn:adsk.eagle:library:527439" deviceset="GND" device=""/>
</parts>
<sheets>
<sheet>
<plain>
</plain>
<instances>
<instance part="12VBATTERY" gate="G$1" x="43.18" y="78.74" smashed="yes" rot="R90">
<attribute name="NAME" x="40.005" y="73.025" size="1.778" layer="95" rot="R90"/>
<attribute name="VALUE" x="48.26" y="73.025" size="1.778" layer="96" rot="R90"/>
</instance>
<instance part="R1" gate="G$1" x="43.18" y="60.96" smashed="yes" rot="R90"/>
<instance part="R2" gate="G$1" x="43.18" y="50.8" smashed="yes" rot="R90"/>
<instance part="X_1" gate="G$1" x="43.18" y="45.72" smashed="yes"/>
</instances>
<busses>
</busses>
<nets>
<net name="VOUT" class="0">
<segment>
<pinref part="12VBATTERY" gate="G$1" pin="-"/>
<wire x1="43.18" y1="66.04" x2="50.8" y2="66.04" width="0.1524" layer="91"/>
<label x="50.8" y="66.04" size="1.778" layer="95"/>
</segment>
</net>
</nets>
</sheet>
</sheets>
</schematic>
</drawing>
<compatibility>
<note version="8.2" severity="warning">
Since Version 8.2, EAGLE supports online libraries. The ids
of those online libraries will not be understood (or retained)
with this version.
</note>
<note version="8.3" severity="warning">
Since Version 8.3, EAGLE supports URNs for individual library
assets (packages, symbols, and devices). The URNs of those assets
will not be understood (or retained) with this version.
</note>
<note version="8.3" severity="warning">
Since Version 8.3, EAGLE supports the association of 3D packages
with devices in libraries, schematics, and board files. Those 3D
packages will not be understood (or retained) with this version.
</note>
</compatibility>
</eagle>
